Building DAG of jobs...
Using shell: /usr/bin/bash
Job counts:
	count	jobs
	1	analyze_repeats_homer
	1
Shutting down, this might take some time.
Complete log: /homes/cawarmerdam/Thema_11/Data_processing/data_processing_2018/Final_Assignment/.snakemake/log/2018-04-19T214804.829004.snakemake.log
